digraph {
	compound=true
	scale=0.7
	1 [label="{#1|Framework-38|(NaN, NaN, NaN)|}" fillcolor="#8e8e8e" shape=Mrecord style=filled width=4]
	2 [label="{#2|Connaitre_et_utiliser_des_règles_syntaxiques|['0.47', '0.4', '1']|[Objectif #1]}" fillcolor="#800026" shape=Mrecord style=filled width=4]
	"2tags0" [label="{Obj#1|w_n = 0.96|Tag_revision}" fillcolor="#ff7f00" fontsize=8 shape=record style=filled]
	2 -> "2tags0" [dir=none len=0.1 style=dashed]
	3 [label="{#3|savoir_remplir_et_utiliser_un_tableau_d_avancement|['0.47', '0.4', '1']|[Objectif #1]}" fillcolor="#e31a1c" shape=Mrecord style=filled width=4]
	"3tags0" [label="{Obj#1|w_n = 0.761068359375|Tag_renforcement}" fillcolor="#4daf4a" fontsize=8 shape=record style=filled]
	3 -> "3tags0" [dir=none len=0.1 style=dashed]
	4 [label="{#4|savoir_utiliser_un_tableau_d_avancement|['0.47', '0.4', '1']|[Objectif #1]}" fillcolor="#e31a1c" shape=Mrecord style=filled width=4]
	"4tags0" [label="{Obj#1|w_n = 0.7184895827067057|Tag_renforcement}" fillcolor="#4daf4a" fontsize=8 shape=record style=filled]
	4 -> "4tags0" [dir=none len=0.1 style=dashed]
	5 [label="{#5|déterminer_l_espèce_limitante|['0.72', '0.5', '1']|[Objectif #1]}" fillcolor="#ffffaa" shape=Mrecord style=filled width=4]
	"5tags0" [label="{Obj#1|w_n = 0.14574270833333333|Tag_a_travailler}" fillcolor="#e41a1c" fontsize=8 shape=record style=filled]
	5 -> "5tags0" [dir=none len=0.1 style=dashed]
	6 [label="{#6|prévoir_l_évolution_des_concentration_des_espèces_en_solution_lors_d_un_titrage|['0.18', '0.5', '1']|[Objectif #1]}" fillcolor="#bd0026" shape=Mrecord style=filled width=4]
	"6tags0" [label="{Obj#1|w_n = 0.8412547833824916|Tag_remediation}" fillcolor="#984ea3" fontsize=8 shape=record style=filled]
	6 -> "6tags0" [dir=none len=0.1 style=dashed]
	7 [label="{#7|déterminer_si_une_réaction_est_totale_ou_partielle|['0', '0', '1']|[Objectif #1]}" fillcolor="#fed976" shape=Mrecord style=filled width=4]
	"7tags0" [label="{Obj#1|w_n = 0.3318528076171875|Tag_decouverte}" fillcolor="#ffff33" fontsize=8 shape=record style=filled]
	7 -> "7tags0" [dir=none len=0.1 style=dashed]
	8 [label="{#8|déterminer_la_relation_entre_quantité_de_matière_à_l_équivalence|['0.4', '0.5', '1']|[Objectif #1]}" fillcolor="#e31a1c" shape=Mrecord style=filled width=4]
	"8tags0" [label="{Obj#1|w_n = 0.7090052615317964|Tag_renforcement}" fillcolor="#4daf4a" fontsize=8 shape=record style=filled]
	8 -> "8tags0" [dir=none len=0.1 style=dashed]
	9 [label="{#9|identifier_les_espèces_présentes_avant_et_après_l_équivalence|['0.6', '0.5', '1']|[Objectif #1]}" fillcolor="#e31a1c" shape=Mrecord style=filled width=4]
	"9tags0" [label="{Obj#1|w_n = 0.7090052615317964|Tag_renforcement}" fillcolor="#4daf4a" fontsize=8 shape=record style=filled]
	9 -> "9tags0" [dir=none len=0.1 style=dashed]
	10 [label="{#10|Term_dosage_titrage|['0.25', '0.5', '1']|}" fillcolor="#8e8e8e" shape=Mrecord style=filled width=4]
	11 [label="{#11|écrire_l_équation_de_support_d_un_titrage|['0.25', '0.5', '1']|}" fillcolor="#8e8e8e" shape=Mrecord style=filled width=4]
	12 [label="{#12|identifier_titrant|['0.4', '0.5', '1']|[Objectif #1]}" fillcolor="#fc4e2a" shape=Mrecord style=filled width=4]
	"12tags0" [label="{Obj#1|w_n = 0.6790478608317047|Tag_prerequis}" fillcolor="#377eb8" fontsize=8 shape=record style=filled]
	12 -> "12tags0" [dir=none len=0.1 style=dashed]
	13 [label="{#13|identifier_titré|['0.1', '0.5', '1']|[Objectif #1]}" fillcolor="#bd0026" shape=Mrecord style=filled width=4]
	"13tags0" [label="{Obj#1|w_n = 0.8186720472314257|Tag_prerequis}" fillcolor="#377eb8" fontsize=8 shape=record style=filled]
	13 -> "13tags0" [dir=none len=0.1 style=dashed]
	1 -> 2 [label=comprises penwidth=3]
	1 -> 10 [label=comprises penwidth=3]
	2 -> 3 [label=hasSkill penwidth=3]
	3 -> 4 [label=isComposedOf penwidth=3]
	4 -> 5 [label=isComposedOf penwidth=3]
	4 -> 6 [label=isComposedOf penwidth=3]
	4 -> 7 [label=isComposedOf penwidth=3]
	4 -> 8 [label=isComposedOf penwidth=3]
	4 -> 9 [label=isComposedOf penwidth=3]
	6 -> 12 [label=requires penwidth=3]
	6 -> 13 [label=requires penwidth=3]
	9 -> 12 [label=requires penwidth=3]
	9 -> 13 [label=requires penwidth=3]
	10 -> 11 [label=hasSkill penwidth=3]
	11 -> 12 [label=isComposedOf penwidth=3]
	11 -> 13 [label=isComposedOf penwidth=3]
	obj1 [label="Obj#1, Revision" fillcolor=green shape=cds style=filled width=3]
	obj1 -> 2 [fillcolor=green style=filled]
	"2_order_0" [label=1.1 color=blue shape=square]
	2 -> "2_order_0" [color=blue penwidth=2]
	"6_order_0" [label=1.2 color=blue shape=square]
	6 -> "6_order_0" [color=blue penwidth=2]
	"13_order_0" [label=1.3 color=blue shape=square]
	13 -> "13_order_0" [color=blue penwidth=2]
	"3_order_0" [label=1.4 color=blue shape=square]
	3 -> "3_order_0" [color=blue penwidth=2]
	"4_order_0" [label=1.5 color=blue shape=square]
	4 -> "4_order_0" [color=blue penwidth=2]
	"8_order_0" [label=1.6 color=blue shape=square]
	8 -> "8_order_0" [color=blue penwidth=2]
	"9_order_0" [label=1.7 color=blue shape=square]
	9 -> "9_order_0" [color=blue penwidth=2]
	"12_order_0" [label=1.8 color=blue shape=square]
	12 -> "12_order_0" [color=blue penwidth=2]
	"7_order_0" [label=1.9 color=blue shape=square]
	7 -> "7_order_0" [color=blue penwidth=2]
	"5_order_0" [label=1.10 color=blue shape=square]
	5 -> "5_order_0" [color=blue penwidth=2]
	asker_473 [label="{#asker_473|Identifier l'espèce titrée et l'espèce titrante 1|(NaN, NaN, NaN)|['Objectif #1', 'Node #13']}" color=blue fillcolor="#bd0026" penwidth=3 shape=Mrecord style=filled width=4]
	asker_473tags0 [label="{Objectif #1, Node #13|w_n=0.8186720472314257|Tag_prerequis}" color="#377eb8" shape=Mrecord style=filled]
	asker_473 -> asker_473tags0 [dir=none style=dashed]
	asker_474 [label="{#asker_474|Identifier l'espèce titrée et l'espèce titrante 2|(NaN, NaN, NaN)|['Objectif #1', 'Node #13']}" color=blue fillcolor="#bd0026" penwidth=3 shape=Mrecord style=filled width=4]
	asker_474tags0 [label="{Objectif #1, Node #13|w_n=0.8186720472314257|Tag_prerequis}" color="#377eb8" shape=Mrecord style=filled]
	asker_474 -> asker_474tags0 [dir=none style=dashed]
	asker_476 [label="{#asker_476|Identifier l'espèce titrée lors d'un titrage|(NaN, NaN, NaN)|['Objectif #1', 'Node #13']}" color=blue fillcolor="#bd0026" penwidth=3 shape=Mrecord style=filled width=4]
	asker_476tags0 [label="{Objectif #1, Node #13|w_n=0.8186720472314257|Tag_prerequis}" color="#377eb8" shape=Mrecord style=filled]
	asker_476 -> asker_476tags0 [dir=none style=dashed]
	asker_486 [label="{#asker_486|Proposer une relation des concentrations et des volumes à l'équivalence|(NaN, NaN, NaN)|['Objectif #1', 'Node #8']}" color=blue fillcolor="#e31a1c" penwidth=3 shape=Mrecord style=filled width=4]
	asker_486tags0 [label="{Objectif #1, Node #8|w_n=0.7090052615317964|Tag_renforcement}" color="#4daf4a" shape=Mrecord style=filled]
	asker_486 -> asker_486tags0 [dir=none style=dashed]
	asker_475 [label="{#asker_475|Associer un énoncé à une équation de la réaction support|(NaN, NaN, NaN)|}" color=blue fillcolor="#8e8e8e" penwidth=3 shape=Mrecord style=filled width=4]
	asker_779 [label="{#asker_779|Prévoir l'évolution des concentrations des espèces en solution lors d'un titrage|(NaN, NaN, NaN)|['Objectif #1', 'Node #6']}" color=blue fillcolor="#bd0026" penwidth=3 shape=Mrecord style=filled width=4]
	asker_779tags0 [label="{Objectif #1, Node #6|w_n=0.8412547833824916|Tag_remediation}" color="#984ea3" shape=Mrecord style=filled]
	asker_779 -> asker_779tags0 [dir=none style=dashed]
	asker_780 [label="{#asker_780|Déterminer l'espèce limitante lors d'un titrage|(NaN, NaN, NaN)|}" color=blue fillcolor="#8e8e8e" penwidth=3 shape=Mrecord style=filled width=4]
	asker_798 [label="{#asker_798|Faire un calcul numérique pour déterminer une concentration niveau 2|(NaN, NaN, NaN)|}" color=blue fillcolor="#8e8e8e" penwidth=3 shape=Mrecord style=filled width=4]
	5 -> asker_780 [label=hasTraining penwidth=3]
	6 -> asker_779 [label=hasTraining penwidth=3]
	8 -> asker_486 [label=hasTraining penwidth=3]
	8 -> asker_798 [label=hasTraining penwidth=3]
	11 -> asker_475 [label=hasTraining penwidth=3]
	12 -> asker_476 [label=hasTraining penwidth=3]
	12 -> asker_474 [label=hasTraining penwidth=3]
	12 -> asker_473 [label=hasTraining penwidth=3]
	13 -> asker_476 [label=hasTraining penwidth=3]
	13 -> asker_474 [label=hasTraining penwidth=3]
	13 -> asker_473 [label=hasTraining penwidth=3]
	select_asker_7790 [label="Res N#1" color=green shape=square]
	asker_779 -> select_asker_7790
	select_asker_4760 [label="Res N#2" color=green shape=square]
	asker_476 -> select_asker_4760
	select_asker_4740 [label="Res N#3" color=green shape=square]
	asker_474 -> select_asker_4740
	select_asker_4730 [label="Res N#4" color=green shape=square]
	asker_473 -> select_asker_4730
	select_asker_4860 [label="Res N#5" color=green shape=square]
	asker_486 -> select_asker_4860
}